{
  "en_US": {
    "slug": "test-bitbucket-plugin",
    "language": "en_US",
    "updated": "2016-09-25 20:21-0700",
    "package": "\/packages\/test-bitbucket-plugin-en_US.zip",
    "autoupdate": "1"
  }
}
